…
The getBirthDate function
-------------------------

A useful function is `getBirthDate`, which extracts the `DoB` (Date of
Birth) variable from the `getEpisodes` dataset.

``` r
bdat <- getBirthDate()
bdat
# A tibble: 174,293 x 2
   IIntID DateOfBirth
    <int> <date>     
 1     11 1945-01-10 
 2     12 1940-12-26 
 3     13 1961-03-07 
 4     14 1974-12-24 
 5     15 1977-08-05 
 6     16 1952-11-16 
 7     17 1968-06-05 
 8     18 1979-04-05 
 9     19 1939-08-18 
10     20 1973-06-25 
# ... with 174,283 more rows
```
…
You can also pass on a custom function to `setArgs` to do further data
processing. For example, let’s drop participants according to some
criteria defined in the custom function.

``` r
dropID <- function(dat) {
  dat <- mutate(dat, Val = rbinom(nrow(dat), 1, 0.4))
  filter(dat, Val==1)
}
Args <- setArgs(Age=list(All=c(15, 19)), setFun=dropID)
epi4 <- setData(epi2, Args, time2="ObservationStart", birthdate=getBirthDate())
epi4
# A tibble: 223,714 x 8
   IIntID  Year Female ObservationStart ObservationEnd   Age AgeCat    Val
    <int> <int>  <int> <date>           <date>         <dbl> <fct>   <int>
 1     21  2005      0 2005-10-14       2005-12-31        15 [15,20)     1
 2     21  2007      0 2007-01-01       2007-04-10        16 [15,20)     1
 3     29  2009      0 2009-03-29       2009-09-05        15 [15,20)     1
 4     29  2010      0 2010-01-01       2010-09-05        16 [15,20)     1
 5     29  2011      0 2011-04-13       2011-06-01        17 [15,20)     1
 6     29  2013      0 2013-01-01       2013-01-13        19 [15,20)     1
 7     29  2013      0 2013-01-26       2013-03-22        19 [15,20)     1
 8     29  2013      0 2013-03-23       2013-09-05        19 [15,20)     1
 9     32  2013      0 2013-01-01       2013-01-05        16 [15,20)     1
10     32  2013      0 2013-01-06       2013-01-25        16 [15,20)     1
# ... with 223,704 more rows
```
…
