…
``` r
getFiles()$hiv_rda
[1] "C:/Users/alainv/AHRI_Data/ACDIS_HIV_All.Rda"
```

Once you have generated the .Rda file, you can run `getHIV` to load in
the data quickly and repeatedly.

``` r
hiv <- getHIV()
hiv
# A tibble: 159,471 x 10
   IIntID BSIntID VisitDate  HIVResult Female   Age PIPSA          HIVNegative HIVPositive  Year
    <int>   <int> <date>         <dbl>  <int> <dbl> <chr>          <date>      <date>      <int>
 1     16    2830 2009-06-02         0      1    56 Southern PIPSA 2009-06-02  NA           2009
 2     16    2830 2011-05-23         0      1    58 Southern PIPSA 2011-05-23  NA           2011
 3     17    9274 2004-02-09         0      1    35 Southern PIPSA 2004-02-09  NA           2004
 4     17    9274 2005-06-02         0      1    36 Southern PIPSA 2005-06-02  NA           2005
 5     17    9274 2006-06-01         0      1    37 Southern PIPSA 2006-06-01  NA           2006
 6     17    9274 2010-08-19         0      1    42 Southern PIPSA 2010-08-19  NA           2010
 7     17    9274 2011-08-06         0      1    43 Southern PIPSA 2011-08-06  NA           2011
 8     17   18272 2017-10-17         1      1    49 Southern PIPSA NA          2017-10-17   2017
 9     17   18272 2018-10-03         1      1    50 Southern PIPSA NA          2018-10-03   2018
10     19    7923 2009-08-04         0      1    69 Southern PIPSA 2009-08-04  NA           2009
# ... with 159,461 more rows
```
…
``` r
readEpi <- readEpisodes()
# Or if you want to keep TasP obs.
readEpi <- readEpisodes(dropTasP=FALSE)
```

On my system, it takes almost a minute to read in the
`SurveillanceEpisodesExtended.dta` dataset. Once the corresponding .Rda
data file has been generated it takes less than a second or two to load
it into memory `getEpisodes`.

``` r
epidat <- getEpisodes()
epidat
# A tibble: 5,612,161 x 14
   IIntID BSIntID Female   Age DoB        DoD         Year ExpDays ObservationStart ObservationEnd
    <int>   <int>  <int> <dbl> <date>     <date>     <int>   <dbl> <date>           <date>        
 1     11    2830      0    54 1945-01-10 2004-12-12  2000       9 2000-01-01       2000-01-09    
 2     11    2830      0    55 1945-01-10 2004-12-12  2000      33 2000-01-10       2000-02-11    
 3     11    2830      0    55 1945-01-10 2004-12-12  2000     324 2000-02-12       2000-12-31    
 4     11    2830      0    55 1945-01-10 2004-12-12  2001       9 2001-01-01       2001-01-09    
 5     11    2830      0    56 1945-01-10 2004-12-12  2001     356 2001-01-10       2001-12-31    
 6     11    2830      0    56 1945-01-10 2004-12-12  2002       9 2002-01-01       2002-01-09    
 7     11    2830      0    57 1945-01-10 2004-12-12  2002     172 2002-01-10       2002-06-30    
 8     11    2830      0    57 1945-01-10 2004-12-12  2002     184 2002-07-01       2002-12-31    
 9     11    2830      0    57 1945-01-10 2004-12-12  2003       9 2003-01-01       2003-01-09    
10     11    2830      0    58 1945-01-10 2004-12-12  2003     356 2003-01-10       2003-12-31    
# ... with 5,612,151 more rows, and 4 more variables: InMigration <dbl+lbl>, OutMigration <dbl+lbl>,
#   Resident <dbl+lbl>, PIPSA <chr>
```
…
``` r
mgh_dat <- getMGH()
wgh_dat <- getWGH()
```

The getBSData and getBSMax functions
------------------------------------

We can read and load the `RD01-03 ACDIS BoundedStructures.dta` dataset
using the `getBSData` function.

``` r
bs_dat <- getBSData()
bs_dat
# A tibble: 30,776 x 18
   BSIntID BSStartDate BSStartType BSEndDate  BSEndType Isigodi LocalArea  Ward IsUrbanOrRural PIPSA
     <int> <date>        <dbl+lbl> <date>     <dbl+lbl> <dbl+l> <dbl+lbl> <dbl>      <dbl+lbl> <dbl>
 1      11 2000-01-01           22 2018-02-10        10       5        32     1              4     1
 2      12 2000-01-01           22 9997-01-01       200       5        32     1              4     1
 3      13 2000-01-01           22 2009-03-17        10       5        32     1              4     1
 4      14 2000-01-01           22 9997-01-01       200       5        32     1              4     1
 5      15 2000-01-01           22 2018-09-12        10       5        32     1              4     1
 6      16 2000-01-01           22 2018-05-31        10       5        33     1              4     1
 7      17 2000-01-01           22 2018-10-30        10      16       107    14              3     1
 8      18 2000-01-01           22 2018-10-30        10      16       107    14              3     1
 9      19 2000-01-01           22 2018-09-20        10       4        24     2              2     1
10      20 2000-01-01           22 2014-09-03        32       7        39    15              3     1
# ... with 30,766 more rows, and 8 more variables: NearestClinic <dbl+lbl>, KmToNearestClinic <dbl>,
#   NearestSecondarySchool <dbl+lbl>, KmToNearestSecondarySchool <dbl>,
#   NearestPrimarySchool <dbl+lbl>, KmToNearestPrimarySchool <dbl>, KmToNearestLevel1Road <dbl>,
#   KmToNearestLevel2Road <dbl>
```

A participant can reside in multiple bounded structures (BS). For a
given year, it is useful to identify the BS that the participant spent
the most time in, which is what the `getBSMax` function does. The
`getBSMax` function is often used to produce an input dataset for
geospatial analyses, where for a single year, only one residence per
participant is allowed.

``` r
bmax <- getBSMax()
bmax
# A tibble: 1,403,031 x 3
   IIntID  Year BSIntID
    <int> <int>   <int>
 1     11  2000    2830
 2     11  2001    2830
 3     11  2002    2830
 4     11  2003    2830
 5     11  2004    2830
 6     12  2000    2460
 7     12  2001    2460
 8     12  2002    2460
 9     12  2003    2460
10     12  2004    2460
# ... with 1,403,021 more rows
```
