…
You must pass the dataframe generated from `getHIV` as its first
argument. The repeat-testers dataset shows one row per participant with
an `obs_start` (earliest HIV-negative) date and either a latest
HIV-negative or earliest HIV-positive date. If the repeat-tester has an
earliest HIV-positive date, then `sero_event==1` is an indicator
variable for a recorded HIV-positive event.

``` r
Args <- setArgs(Years=c(2010:2018), 
  Age=list(All=c(15, 49)))
hiv  <- getHIV()
rtdat <- getRTData(hiv)
rtdat
# A tibble: 27,827 x 6
   IIntID Female obs_start  late_neg   early_pos  sero_event
    <int>  <int> <date>     <date>     <date>          <dbl>
 1     16      1 2009-06-02 2011-05-23 NA                  0
 2     17      1 2004-02-09 2011-08-06 2017-10-17          1
 3     19      1 2009-08-04 2014-08-06 NA                  0
 4     22      1 2006-06-01 2015-07-15 NA                  0
 5     28      0 2004-10-07 2006-10-06 NA                  0
 6     29      0 2011-06-02 2013-03-22 NA                  0
 7     30      0 2004-09-19 2011-05-21 NA                  0
 8     34      1 2004-10-04 2018-08-08 NA                  0
 9     36      0 2011-05-21 2013-03-23 NA                  0
10     45      0 2010-09-11 2011-09-06 NA                  0
# ... with 27,817 more rows
```
…
Censoring and splitting the data
================================

The splitAtSeroDate function
----------------------------

We can use the `splitAtSeroDate` function to right censor the data at
the imputed or latest HIV-negative date, and create annual episodes for
each repeat-tester. So using the `rdat` (random-point) dataset from
above:

``` r
sdat <- splitAtSeroDate(rdat)
sdat
# A tibble: 178,638 x 10
   IIntID Female late_neg   early_pos  sero_date  obs_start  obs_end    sero_event  Year  Time
    <int>  <int> <date>     <date>     <date>     <date>     <date>          <dbl> <int> <dbl>
 1     16      1 2011-05-23 NA         NA         2009-06-02 2010-01-01          0  2009   213
 2     16      1 2011-05-23 NA         NA         2010-01-01 2011-01-01          0  2010   365
 3     16      1 2011-05-23 NA         NA         2011-01-01 2011-05-23          0  2011   142
 4     17      1 2011-08-06 2017-10-17 2014-09-11 2004-02-09 2005-01-01          0  2004   327
 5     17      1 2011-08-06 2017-10-17 2014-09-11 2005-01-01 2006-01-01          0  2005   365
 6     17      1 2011-08-06 2017-10-17 2014-09-11 2006-01-01 2007-01-01          0  2006   365
 7     17      1 2011-08-06 2017-10-17 2014-09-11 2007-01-01 2008-01-01          0  2007   365
 8     17      1 2011-08-06 2017-10-17 2014-09-11 2008-01-01 2009-01-01          0  2008   366
 9     17      1 2011-08-06 2017-10-17 2014-09-11 2009-01-01 2010-01-01          0  2009   365
10     17      1 2011-08-06 2017-10-17 2014-09-11 2010-01-01 2011-01-01          0  2010   365
# ... with 178,628 more rows
```
The data is now split into episodes for each repeat-tester, with a
`Time` variable thrown in for free. This variable gives the number of
exposure days in the respective episode, which is useful for computing
incidence later on.

The splitAtEarlyPos function
----------------------------

We can also split the data into episodes using the earliest HIV-positive
date.

``` r
ep_dat <- splitAtEarlyPos(rdat)
ep_dat
# A tibble: 186,366 x 10
   IIntID Female late_neg   early_pos  sero_date  obs_start  obs_end    sero_event  Year  Time
    <int>  <int> <date>     <date>     <date>     <date>     <date>          <dbl> <int> <dbl>
 1     16      1 2011-05-23 NA         NA         2009-06-02 2010-01-01          0  2009   213
 2     16      1 2011-05-23 NA         NA         2010-01-01 2011-01-01          0  2010   365
 3     16      1 2011-05-23 NA         NA         2011-01-01 2011-05-23          0  2011   142
 4     17      1 2011-08-06 2017-10-17 2014-09-11 2004-02-09 2005-01-01          0  2004   327
 5     17      1 2011-08-06 2017-10-17 2014-09-11 2005-01-01 2006-01-01          0  2005   365
 6     17      1 2011-08-06 2017-10-17 2014-09-11 2006-01-01 2007-01-01          0  2006   365
 7     17      1 2011-08-06 2017-10-17 2014-09-11 2007-01-01 2008-01-01          0  2007   365
 8     17      1 2011-08-06 2017-10-17 2014-09-11 2008-01-01 2009-01-01          0  2008   366
 9     17      1 2011-08-06 2017-10-17 2014-09-11 2009-01-01 2010-01-01          0  2009   365
10     17      1 2011-08-06 2017-10-17 2014-09-11 2010-01-01 2011-01-01          0  2010   365
# ... with 186,356 more rows
```
…
``` r
# Start from scratch
Args <- setArgs(Years=c(2008:2018), 
  Age=list(All=c(15, 45)),
  imputeMethod=imputeRandomPoint)
hiv <- getHIV()
rtdat <- getRTData(hiv)
idat <- getIncData(rtdat, bdat=getBirthDate(), Args)
idat
# A tibble: 83,063 x 13
   IIntID Female late_neg   early_pos  sero_date  obs_start  obs_end    sero_event  Year  Time   Age AgeCat  tscale
    <int>  <int> <date>     <date>     <date>     <date>     <date>          <dbl> <int> <dbl> <dbl> <fct>    <dbl>
 1     17      1 2011-08-06 2017-10-17 2014-05-06 2008-01-01 2009-01-01          0  2008   366    40 [40,45)  1.00 
 2     17      1 2011-08-06 2017-10-17 2014-05-06 2009-01-01 2010-01-01          0  2009   365    41 [40,45)  0.999
 3     17      1 2011-08-06 2017-10-17 2014-05-06 2010-01-01 2011-01-01          0  2010   365    42 [40,45)  0.999
 4     17      1 2011-08-06 2017-10-17 2014-05-06 2011-01-01 2012-01-01          0  2011   365    43 [40,45)  0.999
 5     17      1 2011-08-06 2017-10-17 2014-05-06 2012-01-01 2013-01-01          0  2012   366    44 [40,45)  1.00 
 6     17      1 2011-08-06 2017-10-17 2014-05-06 2013-01-01 2014-01-01          0  2013   365    45 [45,50)  0.999
 7     17      1 2011-08-06 2017-10-17 2014-05-06 2014-01-01 2014-05-06          1  2014   125    45 [45,50)  0.342
 8     29      0 2013-03-22 NA         NA         2011-06-02 2012-01-01          0  2011   213    18 [15,20)  0.583
 9     29      0 2013-03-22 NA         NA         2012-01-01 2013-01-01          0  2012   366    19 [15,20)  1.00 
10     29      0 2013-03-22 NA         NA         2013-01-01 2013-03-22          0  2013    80    19 [15,20)  0.219
# ... with 83,053 more rows
```
…
