…
# Get repeat-testers
rtdat <- getRTData(hiv)
# Make the data time-varying 
gdat <- splitAtEarlyPos(rtdat)
gdat <- setData(gdat, Args, time2="obs_end")
# Make covariates
gdat <- mutate(gdat, 
  Age0 = round(Age - mean(Age), 1),
  Age2 = round(Age0^2, 1))
gdat <- addCircumVar(gdat)
# Make the time variable
gdat <- group_by(gdat, IIntID) %>% 
  mutate(Time = as.integer(obs_end - min(obs_start)))
select(gdat, -c(Age, AgeCat, Year, Time))
# A tibble: 6,042 x 10
# Groups:   IIntID [1,022]
   IIntID Female late_neg   early_pos  obs_start  obs_end    sero_event  Age0  Age2 EverCircum
    <int>  <int> <date>     <date>     <date>     <date>          <dbl> <dbl> <dbl>      <dbl>
 1     28      0 2006-10-06 NA         2005-10-19 2006-01-01          0   9.4  88.4          0
 2     28      0 2006-10-06 NA         2006-01-01 2006-10-06          0  10.4 108.           0
 3     29      0 2013-03-22 NA         2011-06-02 2012-01-01          0  -9.6  92.2          0
 4     29      0 2013-03-22 NA         2012-01-01 2013-01-01          0  -8.6  74            0
 5     29      0 2013-03-22 NA         2013-01-01 2013-03-22          0  -8.6  74            0
 6     30      0 2011-05-21 NA         2010-05-17 2011-01-01          0  -2.6   6.8          0
 7     30      0 2011-05-21 NA         2011-01-01 2011-05-21          0  -2.6   6.8          0
 8     36      0 2013-03-23 NA         2011-05-21 2012-01-01          0  -9.6  92.2          0
 9     36      0 2013-03-23 NA         2012-01-01 2013-01-01          0  -8.6  74            0
10     36      0 2013-03-23 NA         2013-01-01 2013-03-23          0  -8.6  74            0
# ... with 6,032 more rows
```
…
``` r
# Uncomment the line below if you are using this example dataset
# rtdat <- readRDS(file.path(home, "rtdat.Rda"))
# Combine rtdat with the 1st iteration
gdat_ex <- getGImpute(rtdat, gdates, 1)
gdat_ex[gdat_ex$sero_event==1, ]
# A tibble: 93 x 7
   IIntID Female obs_start  late_neg   early_pos  sero_event sero_date 
    <dbl>  <int> <date>     <date>     <date>          <dbl> <date>    
 1    456      0 2005-10-11 2011-09-16 2014-03-02          1 2013-12-27
 2   1267      0 2015-07-25 2015-07-25 2016-07-07          1 2016-06-14
 3   1290      0 2016-11-05 2016-11-05 2018-04-20          1 2018-01-26
 4   1356      0 2005-05-11 2005-05-11 2011-05-04          1 2007-04-08
 5   1432      0 2006-06-13 2006-06-13 2013-11-29          1 2007-09-28
 6   1445      0 2005-04-20 2007-07-12 2009-03-22          1 2008-07-24
 7   1566      0 2006-08-21 2010-02-03 2013-06-27          1 2013-01-01
 8   1668      0 2005-11-22 2005-11-22 2008-06-24          1 2008-01-22
 9   2113      0 2006-07-27 2009-03-26 2012-07-21          1 2009-10-30
10   2417      0 2005-03-02 2011-01-24 2013-04-20          1 2012-05-26
# ... with 83 more rows
```
…
Let’s transition to a month time scale using the following approach.
First, we construct a new `Time` variable for `gdat`.

``` r
# Convert to month
gdat_mnth <- group_by(gdat, IIntID) %>% mutate(Time = round(Time/30.44))
select(gdat_mnth, IIntID, obs_start, obs_end, Time, Year, sero_event)
# A tibble: 6,042 x 6
# Groups:   IIntID [1,022]
   IIntID obs_start  obs_end     Time  Year sero_event
    <int> <date>     <date>     <dbl> <int>      <dbl>
 1     28 2005-10-19 2006-01-01     2  2005          0
 2     28 2006-01-01 2006-10-06    12  2006          0
 3     29 2011-06-02 2012-01-01     7  2011          0
 4     29 2012-01-01 2013-01-01    19  2012          0
 5     29 2013-01-01 2013-03-22    22  2013          0
 6     30 2010-05-17 2011-01-01     8  2010          0
 7     30 2011-01-01 2011-05-21    12  2011          0
 8     36 2011-05-21 2012-01-01     7  2011          0
 9     36 2012-01-01 2013-01-01    19  2012          0
10     36 2013-01-01 2013-03-23    22  2013          0
# ... with 6,032 more rows
# Keep only what is needed
…
